PWD /Users/killerforfun/Programs/IFMO/MastersThesis/Text/parts
INPUT /usr/local/texlive/2016/texmf.cnf
INPUT /usr/local/texlive/2016/texmf-dist/web2c/texmf.cnf
INPUT /usr/local/texlive/2016/texmf-var/web2c/pdftex/pdflatex.fmt
INPUT chapter1.tex
OUTPUT chapter1.log
INPUT /usr/local/texlive/2016/texmf-dist/fonts/map/fontname/texfonts.map
INPUT /usr/local/texlive/2016/texmf-dist/fonts/tfm/public/cm/cmbx10.tfm
INPUT /usr/local/texlive/2016/texmf-dist/fonts/tfm/public/cm/cmti10.tfm
OUTPUT chapter1.pdf
INPUT /usr/local/texlive/2016/texmf-var/fonts/map/pdftex/updmap/pdftex.map
