# Fdb version 3
["pdflatex"] 1467823810 "chapter1.tex" "chapter1.pdf" "chapter1" 1467823810
  "/usr/local/texlive/2016/texmf-dist/fonts/map/fontname/texfonts.map" 1272929888 3287 e6b82fe08f5336d4d5ebc73fb1152e87 ""
  "/usr/local/texlive/2016/texmf-dist/fonts/tfm/public/cm/cmbx10.tfm" 1136768653 1328 c834bbb027764024c09d3d2bf908b5f0 ""
  "/usr/local/texlive/2016/texmf-dist/fonts/tfm/public/cm/cmti10.tfm" 1136768653 1480 aa8e34af0eb6a2941b776984cf1dfdc4 ""
  "/usr/local/texlive/2016/texmf-dist/web2c/texmf.cnf" 1463093894 31953 b9489e6e586f798610c60aec1f5ec548 ""
  "/usr/local/texlive/2016/texmf-var/fonts/map/pdftex/updmap/pdftex.map" 1467811487 1888048 f2c5faed5981a516f406b2ccc20bff71 ""
  "/usr/local/texlive/2016/texmf-var/web2c/pdftex/pdflatex.fmt" 1467811531 3873396 73e9c6ab578f84344d44c7272aaa0e8f ""
  "/usr/local/texlive/2016/texmf.cnf" 1463979140 577 2938757e76f31531e65cc647e3507693 ""
  "chapter1.aux" 1467823810 8 a94a2480d3289e625eea47cd1b285758 ""
  "chapter1.tex" 1467706936 57315 6a5c72a5fba152dd850395b890a05167 ""
  (generated)
  "chapter1.pdf"
  "chapter1.log"
