This is BibTeX, Version 0.99d (TeX Live 2014)
Capacity: max_strings=35307, hash_size=35307, hash_prime=30011
The top-level auxiliary file: report.aux
The style file: IEEEtran.bst
Reallocated singl_function (elt_size=4) to 100 items from 50.
Reallocated singl_function (elt_size=4) to 100 items from 50.
Reallocated singl_function (elt_size=4) to 100 items from 50.
Reallocated wiz_functions (elt_size=4) to 6000 items from 3000.
Reallocated singl_function (elt_size=4) to 100 items from 50.
Database file #1: report.bib
-- IEEEtran.bst version 1.13 (2008/09/30) by Michael Shell.
-- http://www.michaelshell.org/tex/ieeetran/bibtex/
-- See the "IEEEtran_bst_HOWTO.pdf" manual for usage information.

Done.
You've used 7 entries,
            4039 wiz_defined-function locations,
            830 strings with 7785 characters,
and the built_in function-call counts, 2009 in all, are:
= -- 112
> -- 7
< -- 0
+ -- 7
- -- 0
* -- 82
:= -- 336
add.period$ -- 14
call.type$ -- 7
change.case$ -- 7
chr.to.int$ -- 0
cite$ -- 7
duplicate$ -- 189
empty$ -- 232
format.name$ -- 0
if$ -- 409
int.to.chr$ -- 0
int.to.str$ -- 7
missing$ -- 42
newline$ -- 58
num.names$ -- 0
pop$ -- 168
preamble$ -- 1
purify$ -- 0
quote$ -- 2
skip$ -- 140
stack$ -- 0
substring$ -- 7
swap$ -- 77
text.length$ -- 0
text.prefix$ -- 0
top$ -- 5
type$ -- 7
warning$ -- 0
while$ -- 0
width$ -- 8
write$ -- 78
