# Fdb version 3
["pdflatex"] 1467823369 "master-thesis.tex" "master-thesis.pdf" "master-thesis" 1467824150
  "/Users/killerforfun/Library/texlive/2016/texmf-var/fonts/tfm/lh/lh-t2a/larm1440.tfm" 1467823372 3256 3daaa33cf35cf3f354983aa3214ecd7f ""
  "/usr/local/texlive/2016/texmf-dist/fonts/map/fontname/texfonts.map" 1272929888 3287 e6b82fe08f5336d4d5ebc73fb1152e87 ""
  "/usr/local/texlive/2016/texmf-dist/fonts/tfm/public/cm/cmr12.tfm" 1136768653 1288 655e228510b4c2a1abe905c368440826 ""
  "/usr/local/texlive/2016/texmf-dist/fonts/tfm/public/latex-fonts/lasy6.tfm" 1136768653 520 4889cce2180234b97cad636b6039c722 ""
  "/usr/local/texlive/2016/texmf-dist/tex/generic/babel-english/english.ldf" 1367878877 6963 2e0cb3d93aa64508bdb0db58ae900d97 ""
  "/usr/local/texlive/2016/texmf-dist/tex/generic/babel-german/german.ldf" 1412978695 2195 bbbc68e6eb9a7cc24e1ac1b9064ca548 ""
  "/usr/local/texlive/2016/texmf-dist/tex/generic/babel-german/germanb.ldf" 1412978695 8020 0996936836595ac738d1a21c9455bb80 ""
  "/usr/local/texlive/2016/texmf-dist/tex/generic/babel-russian/russianb.ldf" 1455925129 23849 43780b8bceeadaab7a9e099226d0034a ""
  "/usr/local/texlive/2016/texmf-dist/tex/generic/babel/babel.def" 1461448269 50112 8190990703f12b57db0dfe9b839e1e24 ""
  "/usr/local/texlive/2016/texmf-dist/tex/generic/babel/babel.sty" 1461448269 13499 2379954ebbdf3db89eccb32499d2da36 ""
  "/usr/local/texlive/2016/texmf-dist/tex/generic/iftex/iftex.sty" 1365117071 2560 68a7cdbd7a5424fa22f4176117a417e9 ""
  "/usr/local/texlive/2016/texmf-dist/tex/generic/ifxetex/ifxetex.sty" 1284331290 1458 43ab4710dc82f3edeabecd0d099626b2 ""
  "/usr/local/texlive/2016/texmf-dist/tex/generic/oberdiek/etexcmds.sty" 1463608860 7612 729a8cc22a1ee0029997c7f74717ae05 ""
  "/usr/local/texlive/2016/texmf-dist/tex/generic/oberdiek/ifluatex.sty" 1463608860 7324 2310d1247db0114eb4726807c8837a0e ""
  "/usr/local/texlive/2016/texmf-dist/tex/generic/oberdiek/ifpdf.sty" 1463348357 1226 01a89dfef361f60ae7df13cd2946bc16 ""
  "/usr/local/texlive/2016/texmf-dist/tex/generic/oberdiek/ifvtex.sty" 1463608860 6797 90b7f83b0ad46826bc16058b1e3d48df ""
  "/usr/local/texlive/2016/texmf-dist/tex/generic/oberdiek/infwarerr.sty" 1463608860 8253 473e0e41f9adadb1977e8631b8f72ea6 ""
  "/usr/local/texlive/2016/texmf-dist/tex/generic/oberdiek/kvsetkeys.sty" 1463608860 14040 ac8866aac45982ac84021584b0abb252 ""
  "/usr/local/texlive/2016/texmf-dist/tex/generic/oberdiek/ltxcmds.sty" 1463608860 18425 5b3c0c59d76fac78978b5558e83c1f36 ""
  "/usr/local/texlive/2016/texmf-dist/tex/generic/oberdiek/pdftexcmds.sty" 1463002681 19987 582d4214d7e8c829fbc760e4d0fa7b4f ""
  "/usr/local/texlive/2016/texmf-dist/tex/generic/ulem/ulem.sty" 1338588421 23756 854c01b779030ff5b2aad88ba7a119f2 ""
  "/usr/local/texlive/2016/texmf-dist/tex/generic/xstring/xstring.sty" 1269905706 144 0ca8d67b000b795a4d9ec000e0fd09c7 ""
  "/usr/local/texlive/2016/texmf-dist/tex/generic/xstring/xstring.tex" 1381789620 54373 fd4487ae3e45d4074bc89aea1d2b6807 ""
  "/usr/local/texlive/2016/texmf-dist/tex/latex/algorithmicx/algorithmicx.sty" 1160617237 26750 ce139c05a983e19ddca355b43e29c395 ""
  "/usr/local/texlive/2016/texmf-dist/tex/latex/algorithmicx/algpseudocode.sty" 1160617237 3457 d9077efe6b74c5a094199256af8d7d9a ""
  "/usr/local/texlive/2016/texmf-dist/tex/latex/algorithms/algorithm.sty" 1251330371 3249 15763257e50278eef5db1952ccde229c ""
  "/usr/local/texlive/2016/texmf-dist/tex/latex/amscls/amsthm.sty" 1428861406 12225 3cca0d18522255979a1047206228b9d0 ""
  "/usr/local/texlive/2016/texmf-dist/tex/latex/amsfonts/amsfonts.sty" 1359763108 5949 3f3fd50a8cc94c3d4cbf4fc66cd3df1c ""
  "/usr/local/texlive/2016/texmf-dist/tex/latex/amsfonts/amssymb.sty" 1359763108 13829 94730e64147574077f8ecfea9bb69af4 ""
  "/usr/local/texlive/2016/texmf-dist/tex/latex/amsmath/amsbsy.sty" 1456875012 2210 5c54ab129b848a5071554186d0168766 ""
  "/usr/local/texlive/2016/texmf-dist/tex/latex/amsmath/amsgen.sty" 1456875012 4160 c115536cf8d4ff25aa8c1c9bc4ecb79a ""
  "/usr/local/texlive/2016/texmf-dist/tex/latex/amsmath/amsmath.sty" 1459635588 82019 58dd7b022876c1d593cd2135c441946d ""
  "/usr/local/texlive/2016/texmf-dist/tex/latex/amsmath/amsopn.sty" 1459635588 4115 318a66090112f3aa3f415aeb6fe8540f ""
  "/usr/local/texlive/2016/texmf-dist/tex/latex/amsmath/amstext.sty" 1456875012 2431 fe3078ec12fc30287f568596f8e0b948 ""
  "/usr/local/texlive/2016/texmf-dist/tex/latex/amsmath/amsxtra.sty" 1456875012 2029 cbbffa44163e164ccd1c7162bcb6da2e ""
  "/usr/local/texlive/2016/texmf-dist/tex/latex/base/exscale.sty" 1454284088 2439 6a427669230e8504971d439451a87b33 ""
  "/usr/local/texlive/2016/texmf-dist/tex/latex/base/fontenc.sty" 1454284088 4572 634fcdf7e9df867d6d54f84638930408 ""
  "/usr/local/texlive/2016/texmf-dist/tex/latex/base/ifthen.sty" 1454284088 5159 a08c9bbd48fc492f15b22e458bef961f ""
  "/usr/local/texlive/2016/texmf-dist/tex/latex/base/inputenc.sty" 1459635588 4732 d63eda807ac82cca2ca8488efd31a966 ""
  "/usr/local/texlive/2016/texmf-dist/tex/latex/base/omsenc.dfu" 1459635588 2004 b59846258a6c54fecbe43d981c7a8310 ""
  "/usr/local/texlive/2016/texmf-dist/tex/latex/base/ot1enc.dfu" 1459635588 3181 f6d8c97e5b5009a3b4a1e34490b9aa0d ""
  "/usr/local/texlive/2016/texmf-dist/tex/latex/base/t1enc.dfu" 1459635588 11059 f4f43783cf4a8ffee1b201d897840536 ""
  "/usr/local/texlive/2016/texmf-dist/tex/latex/base/t2aenc.dfu" 1459635588 9436 9ffab0434ac38e11c855c3be59921c0b ""
  "/usr/local/texlive/2016/texmf-dist/tex/latex/base/utf8.def" 1459635588 7784 02e454c0f50491e8730511d8fcc96a47 ""
  "/usr/local/texlive/2016/texmf-dist/tex/latex/biblatex-gost/biblatex-gost.dbx" 1460322193 1984 144ce09720de731373a3bb9c759c9dd4 ""
  "/usr/local/texlive/2016/texmf-dist/tex/latex/biblatex-gost/biblatex-gost.def" 1460322193 13289 2f7d061e3ce02ee810d1797e38cc90a6 ""
  "/usr/local/texlive/2016/texmf-dist/tex/latex/biblatex-gost/gost-numeric.bbx" 1460322193 1607 bed285d18c6cadadb35ed51330daba5f ""
  "/usr/local/texlive/2016/texmf-dist/tex/latex/biblatex-gost/gost-numeric.dbx" 1365118782 106 e62c3ce1bb5c2faeb275fbc6495e34fe ""
  "/usr/local/texlive/2016/texmf-dist/tex/latex/biblatex-gost/gost-standard.bbx" 1460322193 64124 6172876f3ad63706cc79191671c092fe ""
  "/usr/local/texlive/2016/texmf-dist/tex/latex/biblatex/biblatex.cfg" 1342308459 69 249fa6df04d948e51b6d5c67bea30c42 ""
  "/usr/local/texlive/2016/texmf-dist/tex/latex/biblatex/biblatex.def" 1463430410 85851 3cc7fbc94f659dfb3369cd67a0742afa ""
  "/usr/local/texlive/2016/texmf-dist/tex/latex/biblatex/biblatex.sty" 1463430410 362794 29010b5371fc604bb32486ed669900c9 ""
  "/usr/local/texlive/2016/texmf-dist/tex/latex/biblatex/blx-compat.def" 1457393237 4342 76204c1274f8331158223305b08f58c1 ""
  "/usr/local/texlive/2016/texmf-dist/tex/latex/biblatex/blx-dm.def" 1463430410 31489 80ca92aba809f8d8a86ae6edfbdc2b91 ""
  "/usr/local/texlive/2016/texmf-dist/tex/latex/biblatex/cbx/numeric-comp.cbx" 1463430410 6731 fe4d96dc83ad05e0f68cedb2a44d5a2f ""
  "/usr/local/texlive/2016/texmf-dist/tex/latex/biblatex/lbx/english.lbx" 1403649385 31406 b134ca0a9c994125c620158738376041 ""
  "/usr/local/texlive/2016/texmf-dist/tex/latex/biblatex/lbx/french.lbx" 1457393237 31163 05e1d8e0290e8c06834dc27a2c599c71 ""
  "/usr/local/texlive/2016/texmf-dist/tex/latex/caption/caption.sty" 1456094605 66233 8b81cfab95a1f8fc2f0f6c89415b087a ""
  "/usr/local/texlive/2016/texmf-dist/tex/latex/caption/caption3.sty" 1456094605 64437 7aae26f62358cb5be7cae9d865fab5b8 ""
  "/usr/local/texlive/2016/texmf-dist/tex/latex/chngcntr/chngcntr.sty" 1252025909 4063 effd8d02c8357a7a1b0c045c4e25e292 ""
  "/usr/local/texlive/2016/texmf-dist/tex/latex/colortbl/colortbl.sty" 1329267615 10607 9635c8e2bffccf182429bfdea9b665a5 ""
  "/usr/local/texlive/2016/texmf-dist/tex/latex/csquotes/csquotes.cfg" 1429144587 7068 06f8d141725d114847527a66439066b6 ""
  "/usr/local/texlive/2016/texmf-dist/tex/latex/csquotes/csquotes.def" 1454367706 17957 fa38762d0882870185605ef6006bb82d ""
  "/usr/local/texlive/2016/texmf-dist/tex/latex/csquotes/csquotes.sty" 1454367706 61475 003441129fdf4a7c533e485780ad0320 ""
  "/usr/local/texlive/2016/texmf-dist/tex/latex/cyrillic/t2acmr.fd" 1428932888 2350 aea5ec15a9fc621f63498b8910478706 ""
  "/usr/local/texlive/2016/texmf-dist/tex/latex/cyrillic/t2aenc.def" 1428932888 12040 8e32bd761154bb49de9af8d0164b52dc ""
  "/usr/local/texlive/2016/texmf-dist/tex/latex/enumitem/enumitem.sty" 1317339792 42666 6fa770e3485520a6a5f2ea7d259c8f8d ""
  "/usr/local/texlive/2016/texmf-dist/tex/latex/etoolbox/etoolbox.sty" 1438639395 41547 7860e623236f5f726a4099bbb7dd89fb ""
  "/usr/local/texlive/2016/texmf-dist/tex/latex/extsizes/extreport.cls" 1137110130 23786 cbd79291aa0922c48a73753b97cabb5f ""
  "/usr/local/texlive/2016/texmf-dist/tex/latex/extsizes/size14.clo" 1137110130 6214 cc6d832fdd2fc5f4a20ee1a002f45d0f ""
  "/usr/local/texlive/2016/texmf-dist/tex/latex/float/float.sty" 1137110151 6749 16d2656a1984957e674b149555f1ea1d ""
  "/usr/local/texlive/2016/texmf-dist/tex/latex/geometry/geometry.sty" 1284422013 40502 e003406220954b0716679d7928aedd8a ""
  "/usr/local/texlive/2016/texmf-dist/tex/latex/graphics-cfg/color.cfg" 1459978653 1213 620bba36b25224fa9b7e1ccb4ecb76fd ""
  "/usr/local/texlive/2016/texmf-dist/tex/latex/graphics-cfg/graphics.cfg" 1459978653 3103 f32642b1cd56c010cdfb6545539b7f0b ""
  "/usr/local/texlive/2016/texmf-dist/tex/latex/graphics/graphics.sty" 1462915952 14391 bd64a9e5d07473b936423b5f3280ed2c ""
  "/usr/local/texlive/2016/texmf-dist/tex/latex/graphics/graphicx.sty" 1428932888 8125 557ab9f1bfa80d369fb45a914aa8a3b4 ""
  "/usr/local/texlive/2016/texmf-dist/tex/latex/graphics/keyval.sty" 1428932888 2594 d18d5e19aa8239cf867fa670c556d2e9 ""
  "/usr/local/texlive/2016/texmf-dist/tex/latex/graphics/trig.sty" 1454284088 3980 0a268fbfda01e381fa95821ab13b6aee ""
  "/usr/local/texlive/2016/texmf-dist/tex/latex/lastpage/lastpage.sty" 1427756658 9922 eb7d00b99f0f5207f71a5cdcbafceac1 ""
  "/usr/local/texlive/2016/texmf-dist/tex/latex/listings/listings.cfg" 1434304428 1827 d72ad54409ca5c1068a1939c63441bd2 ""
  "/usr/local/texlive/2016/texmf-dist/tex/latex/listings/listings.sty" 1434304428 80336 ff90c926c3d7bfdaa3d80ca57123b0bb ""
  "/usr/local/texlive/2016/texmf-dist/tex/latex/listings/lstlang1.sty" 1434304428 93445 48e5be20ba2d0a2ca5c4ce7e292a4bbc ""
  "/usr/local/texlive/2016/texmf-dist/tex/latex/listings/lstmisc.sty" 1434304428 77028 c3eb00afb55a32bc13ca8da7f5234377 ""
  "/usr/local/texlive/2016/texmf-dist/tex/latex/logreq/logreq.def" 1284153563 1620 fb1c32b818f2058eca187e5c41dfae77 ""
  "/usr/local/texlive/2016/texmf-dist/tex/latex/logreq/logreq.sty" 1284153563 6187 b27afc771af565d3a9ff1ca7d16d0d46 ""
  "/usr/local/texlive/2016/texmf-dist/tex/latex/oberdiek/kvoptions.sty" 1463608860 22417 1d9df1eb66848aa31b18a593099cf45c ""
  "/usr/local/texlive/2016/texmf-dist/tex/latex/pdftex-def/pdftex.def" 1306616590 55368 3c8a0d99822330f2dfabc0dfb09ce897 ""
  "/usr/local/texlive/2016/texmf-dist/tex/latex/setspace/setspace.sty" 1324344192 22913 a27d7908fc6f0385466454a966a316eb ""
  "/usr/local/texlive/2016/texmf-dist/tex/latex/tabu/tabu.sty" 1298852510 114961 e56cefaf93c0235eff9664a2490be707 ""
  "/usr/local/texlive/2016/texmf-dist/tex/latex/titlesec/block.tss" 1458858524 1410 f5fabf556740993e1391ddd9561033c8 ""
  "/usr/local/texlive/2016/texmf-dist/tex/latex/titlesec/titlesec.sty" 1458858524 37387 afa86533e532701faf233f3f592c61e0 ""
  "/usr/local/texlive/2016/texmf-dist/tex/latex/titlesec/titletoc.sty" 1458858524 18361 6f2961ec45ee4ad03439efe5de257c61 ""
  "/usr/local/texlive/2016/texmf-dist/tex/latex/tools/array.sty" 1459635588 12398 bd782945c489f84ff012bcea4a712d25 ""
  "/usr/local/texlive/2016/texmf-dist/tex/latex/tools/longtable.sty" 1454284088 12083 80916157594a8e4354985aaefae4f367 ""
  "/usr/local/texlive/2016/texmf-dist/tex/latex/totcount/totcount.sty" 1296083878 5857 486f8b9b567dcfc1437aed4344eff39b ""
  "/usr/local/texlive/2016/texmf-dist/tex/latex/url/url.sty" 1388531844 12796 8edb7d69a20b857904dd0ea757c14ec9 ""
  "/usr/local/texlive/2016/texmf-dist/tex/latex/varwidth/varwidth.sty" 1238697683 10894 d359a13923460b2a73d4312d613554c8 ""
  "/usr/local/texlive/2016/texmf-dist/tex/latex/xcolor/xcolor.sty" 1463002160 55589 34128738f682d033422ca125f82e5d62 ""
  "/usr/local/texlive/2016/texmf-dist/web2c/texmf.cnf" 1463093894 31953 b9489e6e586f798610c60aec1f5ec548 ""
  "/usr/local/texlive/2016/texmf-var/web2c/pdftex/pdflatex.fmt" 1467811531 3873396 73e9c6ab578f84344d44c7272aaa0e8f ""
  "/usr/local/texlive/2016/texmf.cnf" 1463979140 577 2938757e76f31531e65cc647e3507693 ""
  "itmo-student-thesis.cls" 1467706936 25573 8a61cd4c90c8cc561a46ac7f6b75cd23 ""
  "master-thesis.aux" 1467823369 8 a94a2480d3289e625eea47cd1b285758 ""
  "master-thesis.tex" 1467706936 1592 e89f371ead091f365a21255d80458845 ""
  "pscyr.sty" 0 -1 0 ""
  (generated)
  "master-thesis.pdf"
  "master-thesis.log"
  "master-thesis.tct"
